R Data Analytics Series at NTPU, 2022
…
filter()

filter() is used when we want to subset observations based on a logical condition. For example, we can select all fights on December 25th using the following code.

filter(df, month == 12, day == 25)

## # A tibble: 719 x 19
##     year month   day dep_time sched_dep_time dep_delay arr_time sched_arr_time
##    <int> <int> <int>    <int>          <int>     <dbl>    <int>          <int>
##  1  2013    12    25      456            500        -4      649            651
##  2  2013    12    25      524            515         9      805            814
##  3  2013    12    25      542            540         2      832            850
##  4  2013    12    25      546            550        -4     1022           1027
##  5  2013    12    25      556            600        -4      730            745
##  6  2013    12    25      557            600        -3      743            752
##  7  2013    12    25      557            600        -3      818            831
##  8  2013    12    25      559            600        -1      855            856
##  9  2013    12    25      559            600        -1      849            855
## 10  2013    12    25      600            600         0      850            846
## # ... with 709 more rows, and 11 more variables: arr_delay <dbl>,
## #   carrier <chr>, flight <int>, tailnum <chr>, origin <chr>, dest <chr>,
## #   air_time <dbl>, distance <dbl>, hour <dbl>, minute <dbl>, time_hour <dttm>

Christmas <- filter(df, month == 12, day == 25)

Comparisons -  R provides the standard suite: <, <=, >, >=, != (not equal), and == (equal).

If we would like to save the results to a variable as well as print them, we can wrap the assignment in parentheses

(Jan1 <- filter(df, month == 1, day == 1)) 

## # A tibble: 842 x 19
##     year month   day dep_time sched_dep_time dep_delay arr_time sched_arr_time
##    <int> <int> <int>    <int>          <int>     <dbl>    <int>          <int>
##  1  2013     1     1      517            515         2      830            819
##  2  2013     1     1      533            529         4      850            830
##  3  2013     1     1      542            540         2      923            850
##  4  2013     1     1      544            545        -1     1004           1022
##  5  2013     1     1      554            600        -6      812            837
##  6  2013     1     1      554            558        -4      740            728
##  7  2013     1     1      555            600        -5      913            854
##  8  2013     1     1      557            600        -3      709            723
##  9  2013     1     1      557            600        -3      838            846
## 10  2013     1     1      558            600        -2      753            745
## # ... with 832 more rows, and 11 more variables: arr_delay <dbl>,
## #   carrier <chr>, flight <int>, tailnum <chr>, origin <chr>, dest <chr>,
## #   air_time <dbl>, distance <dbl>, hour <dbl>, minute <dbl>, time_hour <dttm>

Logical Operations -  R provides the following syntax: & is and, | is or, ! is not.

The following code finds all flights that departed in July or August.

filter(df, month == 7 | month == 8)

## # A tibble: 58,752 x 19
##     year month   day dep_time sched_dep_time dep_delay arr_time sched_arr_time
##    <int> <int> <int>    <int>          <int>     <dbl>    <int>          <int>
##  1  2013     7     1        1           2029       212      236           2359
##  2  2013     7     1        2           2359         3      344            344
##  3  2013     7     1       29           2245       104      151              1
##  4  2013     7     1       43           2130       193      322             14
##  5  2013     7     1       44           2150       174      300            100
##  6  2013     7     1       46           2051       235      304           2358
##  7  2013     7     1       48           2001       287      308           2305
##  8  2013     7     1       58           2155       183      335             43
##  9  2013     7     1      100           2146       194      327             30
## 10  2013     7     1      100           2245       135      337            135
## # ... with 58,742 more rows, and 11 more variables: arr_delay <dbl>,
## #   carrier <chr>, flight <int>, tailnum <chr>, origin <chr>, dest <chr>,
## #   air_time <dbl>, distance <dbl>, hour <dbl>, minute <dbl>, time_hour <dttm>

filter(df, month %in% c(7, 8))

## # A tibble: 58,752 x 19
##     year month   day dep_time sched_dep_time dep_delay arr_time sched_arr_time
##    <int> <int> <int>    <int>          <int>     <dbl>    <int>          <int>
##  1  2013     7     1        1           2029       212      236           2359
##  2  2013     7     1        2           2359         3      344            344
##  3  2013     7     1       29           2245       104      151              1
##  4  2013     7     1       43           2130       193      322             14
##  5  2013     7     1       44           2150       174      300            100
##  6  2013     7     1       46           2051       235      304           2358
##  7  2013     7     1       48           2001       287      308           2305
##  8  2013     7     1       58           2155       183      335             43
##  9  2013     7     1      100           2146       194      327             30
## 10  2013     7     1      100           2245       135      337            135
## # ... with 58,742 more rows, and 11 more variables: arr_delay <dbl>,
## #   carrier <chr>, flight <int>, tailnum <chr>, origin <chr>, dest <chr>,
## #   air_time <dbl>, distance <dbl>, hour <dbl>, minute <dbl>, time_hour <dttm>

Note:

If we use filter(df, month == 7 | 8), it finds all months are equal 7 | 8, an expression that evaluates to TRUE. In a numeric context, TRUE becomes one, so this finds all fights in the data.

filter() only includes rows where the condition is TRUE and it excludes both FALSE and NA values.

If we want to find flights that werent delayed on both arrival and departure by more than 1 hour, we could use either of the following codes.

filter(df, !(arr_delay > 60 | dep_delay > 60))

## # A tibble: 295,893 x 19
##     year month   day dep_time sched_dep_time dep_delay arr_time sched_arr_time
##    <int> <int> <int>    <int>          <int>     <dbl>    <int>          <int>
##  1  2013     1     1      517            515         2      830            819
##  2  2013     1     1      533            529         4      850            830
##  3  2013     1     1      542            540         2      923            850
##  4  2013     1     1      544            545        -1     1004           1022
##  5  2013     1     1      554            600        -6      812            837
##  6  2013     1     1      554            558        -4      740            728
##  7  2013     1     1      555            600        -5      913            854
##  8  2013     1     1      557            600        -3      709            723
##  9  2013     1     1      557            600        -3      838            846
## 10  2013     1     1      558            600        -2      753            745
## # ... with 295,883 more rows, and 11 more variables: arr_delay <dbl>,
## #   carrier <chr>, flight <int>, tailnum <chr>, origin <chr>, dest <chr>,
## #   air_time <dbl>, distance <dbl>, hour <dbl>, minute <dbl>, time_hour <dttm>

filter(df, arr_delay <= 60, dep_delay <= 60)

## # A tibble: 295,893 x 19
##     year month   day dep_time sched_dep_time dep_delay arr_time sched_arr_time
##    <int> <int> <int>    <int>          <int>     <dbl>    <int>          <int>
##  1  2013     1     1      517            515         2      830            819
##  2  2013     1     1      533            529         4      850            830
##  3  2013     1     1      542            540         2      923            850
##  4  2013     1     1      544            545        -1     1004           1022
##  5  2013     1     1      554            600        -6      812            837
##  6  2013     1     1      554            558        -4      740            728
##  7  2013     1     1      555            600        -5      913            854
##  8  2013     1     1      557            600        -3      709            723
##  9  2013     1     1      557            600        -3      838            846
## 10  2013     1     1      558            600        -2      753            745
## # ... with 295,883 more rows, and 11 more variables: arr_delay <dbl>,
## #   carrier <chr>, flight <int>, tailnum <chr>, origin <chr>, dest <chr>,
## #   air_time <dbl>, distance <dbl>, hour <dbl>, minute <dbl>, time_hour <dttm>
…
Were operated by American (AA), Delta (DL), or United (UA) airlines

Flew to Houston (IAH or HOU)

Departed in winter (December, January, February)

arrived more than one hour late, but didnt leave late

arrange()

arrange() is used when we want to sort a dataset by a variable. If more variables are specified for sorting a dataset, the variables entered first taking priority over those come later. The following code chunk gives an example that sorts the flights by dates.

arrange(df, year, month, day)

## # A tibble: 336,776 x 19
##     year month   day dep_time sched_dep_time dep_delay arr_time sched_arr_time
##    <int> <int> <int>    <int>          <int>     <dbl>    <int>          <int>
##  1  2013     1     1      517            515         2      830            819
##  2  2013     1     1      533            529         4      850            830
##  3  2013     1     1      542            540         2      923            850
##  4  2013     1     1      544            545        -1     1004           1022
##  5  2013     1     1      554            600        -6      812            837
##  6  2013     1     1      554            558        -4      740            728
##  7  2013     1     1      555            600        -5      913            854
##  8  2013     1     1      557            600        -3      709            723
##  9  2013     1     1      557            600        -3      838            846
## 10  2013     1     1      558            600        -2      753            745
## # ... with 336,766 more rows, and 11 more variables: arr_delay <dbl>,
## #   carrier <chr>, flight <int>, tailnum <chr>, origin <chr>, dest <chr>,
## #   air_time <dbl>, distance <dbl>, hour <dbl>, minute <dbl>, time_hour <dttm>

Note:

We can save the data frame back to the original data frame after sorting the data.

Use desc() for sorting data via descending order. The following code chunk arranges the Flights Data by arrival delay in descending order.

Missing values are always sorted at the end.

arrange(df, desc(arr_delay))

## # A tibble: 336,776 x 19
##     year month   day dep_time sched_dep_time dep_delay arr_time sched_arr_time
##    <int> <int> <int>    <int>          <int>     <dbl>    <int>          <int>
##  1  2013     1     9      641            900      1301     1242           1530
##  2  2013     6    15     1432           1935      1137     1607           2120
##  3  2013     1    10     1121           1635      1126     1239           1810
##  4  2013     9    20     1139           1845      1014     1457           2210
##  5  2013     7    22      845           1600      1005     1044           1815
##  6  2013     4    10     1100           1900       960     1342           2211
##  7  2013     3    17     2321            810       911      135           1020
##  8  2013     7    22     2257            759       898      121           1026
##  9  2013    12     5      756           1700       896     1058           2020
## 10  2013     5     3     1133           2055       878     1250           2215
## # ... with 336,766 more rows, and 11 more variables: arr_delay <dbl>,
## #   carrier <chr>, flight <int>, tailnum <chr>, origin <chr>, dest <chr>,
## #   air_time <dbl>, distance <dbl>, hour <dbl>, minute <dbl>, time_hour <dttm>
…
Exercises:

Sort flights to find the most delayed flights. Find the flights that left earliest.

Sort flights to find the fastest flights.

select()

select() is used when we would like to obtain several variables in the data. For example, we can use the following code chunk to select the Flights Data with only a few variables.

# select specific columns
select(df, year, month, day)

## # A tibble: 336,776 x 3
##     year month   day
##    <int> <int> <int>
##  1  2013     1     1
##  2  2013     1     1
##  3  2013     1     1
##  4  2013     1     1
##  5  2013     1     1
##  6  2013     1     1
##  7  2013     1     1
##  8  2013     1     1
##  9  2013     1     1
## 10  2013     1     1
## # ... with 336,766 more rows

# select all columns between year and day
select(df, year:day) 

## # A tibble: 336,776 x 3
##     year month   day
##    <int> <int> <int>
##  1  2013     1     1
##  2  2013     1     1
##  3  2013     1     1
##  4  2013     1     1
##  5  2013     1     1
##  6  2013     1     1
##  7  2013     1     1
##  8  2013     1     1
##  9  2013     1     1
## 10  2013     1     1
## # ... with 336,766 more rows

# select all columns except those from year and day
select(df, -(year:day)) 

## # A tibble: 336,776 x 16
##    dep_time sched_dep_time dep_delay arr_time sched_arr_time arr_delay carrier
##       <int>          <int>     <dbl>    <int>          <int>     <dbl> <chr>  
##  1      517            515         2      830            819        11 UA     
##  2      533            529         4      850            830        20 UA     
##  3      542            540         2      923            850        33 AA     
##  4      544            545        -1     1004           1022       -18 B6     
##  5      554            600        -6      812            837       -25 DL     
##  6      554            558        -4      740            728        12 UA     
##  7      555            600        -5      913            854        19 B6     
##  8      557            600        -3      709            723       -14 EV     
##  9      557            600        -3      838            846        -8 B6     
## 10      558            600        -2      753            745         8 AA     
## # ... with 336,766 more rows, and 9 more variables: flight <int>,
## #   tailnum <chr>, origin <chr>, dest <chr>, air_time <dbl>, distance <dbl>,
## #   hour <dbl>, minute <dbl>, time_hour <dttm>

Note:

We can use a minus sign - to drop variables.

There are several helper functions we can use within select(). See ?select for the information.

select() can be used with the everything() function when we have a handful of variables we would like to move to the start of the data frame.

# move carrier, origin, dest, and distance to the start of the data
select(df, carrier, origin, dest, distance, everything())

## # A tibble: 336,776 x 19
##    carrier origin dest  distance  year month   day dep_time sched_dep_time
##    <chr>   <chr>  <chr>    <dbl> <int> <int> <int>    <int>          <int>
##  1 UA      EWR    IAH       1400  2013     1     1      517            515
##  2 UA      LGA    IAH       1416  2013     1     1      533            529
##  3 AA      JFK    MIA       1089  2013     1     1      542            540
##  4 B6      JFK    BQN       1576  2013     1     1      544            545
##  5 DL      LGA    ATL        762  2013     1     1      554            600
##  6 UA      EWR    ORD        719  2013     1     1      554            558
##  7 B6      EWR    FLL       1065  2013     1     1      555            600
##  8 EV      LGA    IAD        229  2013     1     1      557            600
##  9 B6      JFK    MCO        944  2013     1     1      557            600
## 10 AA      LGA    ORD        733  2013     1     1      558            600
## # ... with 336,766 more rows, and 10 more variables: dep_delay <dbl>,
## #   arr_time <int>, sched_arr_time <int>, arr_delay <dbl>, flight <int>,
## #   tailnum <chr>, air_time <dbl>, hour <dbl>, minute <dbl>, time_hour <dttm>
…
Note: mutate() always adds new columns at the end of the data.

First, we start by creating a smaller dataset with a few variables and create two variables using varaibles in the dataset.

# we start by creating a smaller dataset.
df1 <- select(df, year:day, ends_with("delay"), distance, air_time)

mutate(df1, 
       gain= arr_delay - dep_delay, 
       speed = distance / air_time * 60,
       hours = air_time / 60,
       gain_per_hour = gain / hours)

## # A tibble: 336,776 x 11
##     year month   day dep_delay arr_delay distance air_time  gain speed hours
##    <int> <int> <int>     <dbl>     <dbl>    <dbl>    <dbl> <dbl> <dbl> <dbl>
##  1  2013     1     1         2        11     1400      227     9  370. 3.78 
##  2  2013     1     1         4        20     1416      227    16  374. 3.78 
##  3  2013     1     1         2        33     1089      160    31  408. 2.67 
##  4  2013     1     1        -1       -18     1576      183   -17  517. 3.05 
##  5  2013     1     1        -6       -25      762      116   -19  394. 1.93 
##  6  2013     1     1        -4        12      719      150    16  288. 2.5  
##  7  2013     1     1        -5        19     1065      158    24  404. 2.63 
##  8  2013     1     1        -3       -14      229       53   -11  259. 0.883
##  9  2013     1     1        -3        -8      944      140    -5  405. 2.33 
## 10  2013     1     1        -2         8      733      138    10  319. 2.3  
## # ... with 336,766 more rows, and 1 more variable: gain_per_hour <dbl>

If we only want to keep the new variables, use transmute().

transmute(df1, 
       gain= arr_delay - dep_delay, 
       speed = distance / air_time * 60,
       hours = air_time / 60,
       gain_per_hour = gain / hours)

## # A tibble: 336,776 x 4
##     gain speed hours gain_per_hour
##    <dbl> <dbl> <dbl>         <dbl>
##  1     9  370. 3.78           2.38
##  2    16  374. 3.78           4.23
##  3    31  408. 2.67          11.6 
##  4   -17  517. 3.05          -5.57
##  5   -19  394. 1.93          -9.83
##  6    16  288. 2.5            6.4 
##  7    24  404. 2.63           9.11
##  8   -11  259. 0.883        -12.5 
##  9    -5  405. 2.33          -2.14
## 10    10  319. 2.3            4.35
## # ... with 336,766 more rows

Note: There are many functions for creating new variables that we can use with mutate(). The key property is that the function must be vectorized, which means it must take a vector of values as input and returns a vector with the same number of values as output.

Exercises:

Currently dep_time and sched_dep_time are convenient to look at, but hard to compute with because they are not really continuous numbers. Convert them to a more convenient representation of number of minutes since midnight.

select(df, dep_time, sched_dep_time)

## # A tibble: 336,776 x 2
##    dep_time sched_dep_time
##       <int>          <int>
##  1      517            515
##  2      533            529
##  3      542            540
##  4      544            545
##  5      554            600
##  6      554            558
##  7      555            600
##  8      557            600
##  9      557            600
## 10      558            600
## # ... with 336,766 more rows
…
